{
    "BaseUrl": {
        "schema": "https",
        "host": "api.dev.numoola.com"
    },
    "CbeVersion": "v4",
    "NumoolaVersion": "v1",
    "MembershipTrialDuration": 45,
    "MembershipMonthlyAmount": 1.99
}
